par_clib/dclk_rx.vcd
$date
	Thu Oct 30 12:32:27 2014
$end
$version
	Icarus Verilog
$end
$timescale
	1s
$end
$scope module top $end
$var wire 1 ! channel_busy $end
$var wire 4 " item_in [3:0] $end
$var wire 1 # item_read $end
$var wire 4 $ parallel_out [3:0] $end
$var wire 1 % rclk $end
$var wire 1 & req $end
$var wire 1 ' reset $end
$var wire 1 ( serial_in $end
$var wire 1 ) tx_active $end
$var wire 1 * tx_busy $end
$var wire 1 + valid $end
$var wire 1 , wclk $end
$scope module g0 $end
$var reg 4 - item_in [3:0] $end
$var reg 1 . item_read $end
$var reg 1 / rclk $end
$var reg 1 0 req $end
$var reg 1 1 reset $end
$var reg 1 2 wclk $end
$upscope $end
$scope module dclk_rx0 $end
$var wire 1 ! channel_busy $end
$var wire 1 # item_read $end
$var wire 4 3 parallel_out [3:0] $end
$var wire 1 % rclk $end
$var wire 1 ' reset $end
$var wire 1 ( serial_in $end
$var wire 1 + valid $end
$var wire 1 4 validw $end
$var wire 1 , wclk $end
$var reg 5 5 item [4:0] $end
$var reg 2 6 state [1:0] $end
$var reg 2 7 valid_reg [1:0] $end
$upscope $end
$scope module tx0 $end
$var wire 1 8 busy_sync $end
$var wire 1 ! channel_busy $end
$var wire 1 , clk $end
$var wire 4 9 parallel_in [3:0] $end
$var wire 1 & req $end
$var wire 1 ' reset $end
$var wire 1 ( serial_out $end
$var wire 1 * tx_busy $end
$var reg 2 : busy_reg [1:0] $end
$var reg 6 ; item [5:0] $end
$var reg 4 < temp [3:0] $end
$var reg 1 = tx_active $end
$upscope $end
$upscope $end
$enddefinitions $end
#0
$dumpvars
x=
bx <
bx ;
bx :
b0 9
x8
bx 7
bx 6
bx 5
x4
bx 3
12
11
00
0/
0.
b0 -
1,
x+
x*
x)
x(
1'
0&
0%
bx $
0#
b0 "
x!
$end
#2
02
0,
#5
0+
b0 $
b0 3
b0 6
04
0!
b0 5
b0 7
1/
1%
#8
0*
08
0(
b0 :
b0 <
0=
0)
b0 ;
12
1,
#10
0/
0%
#14
02
0,
#15
b0 7
1/
1%
#20
0/
0%
12
1,
#25
b0 7
1/
1%
#26
02
0,
#30
0/
0%
#32
12
1,
#35
b0 7
1/
1%
#38
02
0,
#40
0/
0%
01
0'
#44
b0 :
b0 5
12
1,
#45
b0 7
1/
1%
#50
02
0,
0/
0%
#55
b0 7
1/
1%
#56
b0 5
b0 :
12
1,
#60
0/
0%
#62
02
0,
#65
b0 7
1/
1%
#68
1(
1*
b1 <
b100011 ;
1=
1)
b0 :
b0 5
12
1,
10
1&
b1 -
b1 "
b1 9
#70
0/
0%
#74
02
0,
#75
b0 7
1/
1%
#80
b10000 5
b1 6
1!
b10001 ;
b0 :
0/
0%
12
1,
00
0&
#85
b0 7
1/
1%
#86
02
0,
#90
0/
0%
#92
0(
b1000 $
b1000 3
b1000 ;
b1 :
b11000 5
12
1,
#95
b0 7
1/
1%
#98
02
0,
#100
0/
0%
#104
b1100 $
b1100 3
18
b1100 5
b100 ;
b11 :
12
1,
#105
b0 7
1/
1%
#110
02
0,
0/
0%
#115
b0 7
1/
1%
#116
b110 $
b110 3
b10 ;
b11 :
b110 5
12
1,
#120
0/
0%
#122
02
0,
#125
b0 7
1/
1%
#128
b11 $
b11 3
b11 5
0=
0)
b0 ;
b11 :
12
1,
#130
0/
0%
#134
02
0,
#135
b0 7
1/
1%
#140
b1 $
b1 3
b11 :
b10 6
14
b1 5
0/
0%
12
1,
#145
b1 7
1/
1%
#146
02
0,
#150
0/
0%
#152
b11 :
12
1,
#155
b0 $
b0 3
b0 5
b0 6
04
0!
b0 7
1/
1%
1.
1#
#158
02
0,
#160
0/
0%
#164
b10 :
b0 5
12
1,
#165
b0 7
1/
1%
0.
0#
#170
02
0,
0/
0%
#175
b0 7
1/
1%
#176
0*
08
b0 5
b0 :
12
1,
#180
0/
0%
#182
02
0,
#185
b0 7
1/
1%
#188
b0 :
b0 5
12
1,
#190
0/
0%
#194
02
0,
#195
b0 7
1/
1%
#200
b0 5
b0 :
0/
0%
12
1,
#205
b0 7
1/
1%
#206
02
0,
#210
0/
0%
#212
b0 :
b0 5
12
1,
#215
b0 7
1/
1%
#218
02
0,
#220
0/
0%
#224
b0 5
b0 :
12
1,
#225
b0 7
1/
1%
#230
02
0,
0/
0%
#235
b0 7
1/
1%
#236
b0 :
b0 5
12
1,
#240
0/
0%
#242
02
0,
#245
b0 7
1/
1%
#248
b0 5
b0 :
12
1,
#250
0/
0%
#254
02
0,
#255
b0 7
1/
1%
#260
1(
1*
b10 <
b100101 ;
1=
1)
b0 :
b0 5
0/
0%
12
1,
10
1&
b10 -
b10 "
b10 9
#265
b0 7
1/
1%
#266
02
0,
#270
0/
0%
#272
0(
b10000 5
b1 6
1!
b10010 ;
b0 :
12
1,
00
0&
#275
b0 7
1/
1%
#278
02
0,
#280
0/
0%
#284
1(
b1000 $
b1000 3
b1001 ;
b1 :
b1000 5
12
1,
#285
b0 7
1/
1%
#290
02
0,
0/
0%
#295
b0 7
1/
1%
#296
0(
b100 $
b100 3
18
b10100 5
b100 ;
b11 :
12
1,
#300
0/
0%
#302
02
0,
#305
b0 7
1/
1%
#308
b1010 $
b1010 3
b10 ;
b11 :
b1010 5
12
1,
#310
0/
0%
#314
02
0,
#315
b0 7
1/
1%
#320
b101 $
b101 3
b101 5
0=
0)
b0 ;
b11 :
0/
0%
12
1,
#325
b0 7
1/
1%
#326
02
0,
#330
0/
0%
#332
b10 $
b10 3
b11 :
b10 6
14
b10 5
12
1,
#335
b1 7
1/
1%
#338
02
0,
#340
0/
0%
#344
b11 :
12
1,
#345
1+
b11 7
1/
1%
#350
02
0,
0/
0%
#355
b11 7
1/
1%
#356
b11 :
12
1,
#360
0/
0%
#362
02
0,
#365
0+
b0 $
b0 3
b0 5
b0 6
04
0!
b0 7
1/
1%
1.
1#
#368
b0 5
b10 :
12
1,
#370
0/
0%
#374
02
0,
#375
b0 7
1/
1%
0.
0#
#380
0*
08
b0 :
b0 5
0/
0%
12
1,
#385
b0 7
1/
1%
#386
02
0,
#390
0/
0%
#392
b0 5
b0 :
12
1,
#395
b0 7
1/
1%
#398
02
0,
#400
0/
0%
#404
b0 :
b0 5
12
1,
#405
b0 7
1/
1%
#410
02
0,
0/
0%
#415
b0 7
1/
1%
#416
b0 5
b0 :
12
1,
#420
0/
0%
#422
02
0,
#425
b0 7
1/
1%
#428
b0 :
b0 5
12
1,
#430
0/
0%
#434
02
0,
#435
b0 7
1/
1%
#440
b0 5
b0 :
0/
0%
12
1,
#445
b0 7
1/
1%
#446
02
0,
#450
0/
0%
#452
b0 :
b0 5
12
1,
#455
b0 7
1/
1%
#458
02
0,
#460
0/
0%
#464
b0 5
b0 :
12
1,
#465
b0 7
1/
1%
#470
02
0,
0/
0%
#475
b0 7
1/
1%
#476
b0 :
b0 5
12
1,
#480
0/
0%
#482
02
0,
#485
b0 7
1/
1%
#488
b0 5
b0 :
12
1,
#490
0/
0%
#494
02
0,
#495
b0 7
1/
1%
#500
b0 :
b0 5
0/
0%
12
1,
#505
b0 7
1/
1%
#506
02
0,
#510
0/
0%
#512
b0 5
b0 :
12
1,
#515
b0 7
1/
1%
#518
02
0,
#520
0/
0%
#524
b0 :
b0 5
12
1,
#525
b0 7
1/
1%
#530
02
0,
0/
0%
#535
b0 7
1/
1%
#536
b0 5
b0 :
12
1,
#540
0/
0%
#542
02
0,
#545
b0 7
1/
1%
#548
b0 :
b0 5
12
1,
#550
0/
0%
#554
02
0,
#555
b0 7
1/
1%
#560
b0 5
b0 :
0/
0%
12
1,
#565
b0 7
1/
1%
#566
02
0,
#570
0/
0%
#572
b0 :
b0 5
12
1,
#575
b0 7
1/
1%
#578
02
0,
#580
0/
0%
#584
b0 5
b0 :
12
1,
#585
b0 7
1/
1%
#590
02
0,
0/
0%
#595
b0 7
1/
1%
#596
b0 :
b0 5
12
1,
#600
0/
0%
#602
02
0,
#605
b0 7
1/
1%
#608
b0 5
b0 :
12
1,
#610
0/
0%
#614
02
0,
#615
b0 7
1/
1%
#620
b0 :
b0 5
0/
0%
12
1,
#625
b0 7
1/
1%
#626
02
0,
#630
0/
0%
#632
b0 5
b0 :
12
1,
#635
b0 7
1/
1%
#638
02
0,
#640
0/
0%
#644
b0 :
b0 5
12
1,
#645
b0 7
1/
1%
#650
02
0,
0/
0%
#655
b0 7
1/
1%
#656
b0 5
b0 :
12
1,
#660
0/
0%
#662
02
0,
#665
b0 7
1/
1%
#668
b0 :
b0 5
12
1,
